<?xml version="1.0" encoding="UTF-8"?>
<svg id="Layer_1" data-name="Layer 1" xmlns="http://www.w3.org/2000/svg" viewBox="0 0 240.28 108.5">
  <defs>
    <style>
      .cls-1 {
        fill: #383838;
        stroke-width: 0px;
      }
    </style>
  </defs>
  <path class="cls-1" d="m13.79,95.02L50.46,14.06h11.45l36.78,80.96h-12.14L53.81,20.54h4.63L25.71,95.02h-11.92Z"/>
  <path class="cls-1" d="m113.37,95.02V14.06h3.93v80.96h-3.93Z"/>
  <path class="cls-1" d="m180.45,95.48c-5.94,0-11.45-1.02-16.54-3.06s-9.52-4.91-13.3-8.62c-3.78-3.7-6.71-8.04-8.79-13.01-2.08-4.97-3.12-10.39-3.12-16.25s1.04-11.27,3.12-16.24c2.08-4.98,5.01-9.32,8.79-13.01,3.78-3.7,8.21-6.57,13.3-8.62s10.64-3.07,16.65-3.07,11.45,1.03,16.54,3.07,9.5,4.91,13.24,8.62c3.74,3.69,6.67,8.02,8.79,12.94,2.12,4.94,3.18,10.38,3.18,16.31s-1.06,11.28-3.18,16.25-5.05,9.31-8.79,13.01c-3.74,3.7-8.15,6.57-13.24,8.62s-10.64,3.06-16.65,3.06Zm0-3.58c5.39,0,10.41-.93,15.03-2.78s8.65-4.47,12.09-7.86c3.43-3.4,6.09-7.35,7.98-11.86,1.89-4.51,2.83-9.46,2.83-14.86s-.94-10.35-2.83-14.86c-1.89-4.51-4.55-8.46-7.98-11.85-3.43-3.4-7.46-6.02-12.09-7.87-4.63-1.84-9.64-2.77-15.03-2.77s-10.3.93-14.92,2.77c-4.63,1.85-8.66,4.47-12.09,7.87-3.43,3.39-6.09,7.36-7.98,11.92-1.89,4.54-2.83,9.48-2.83,14.8s.94,10.36,2.83,14.86,4.55,8.46,7.98,11.86c3.43,3.39,7.46,6.01,12.09,7.86,4.63,1.85,9.6,2.78,14.92,2.78Z"/>
</svg>