<?xml version="1.0" encoding="utf-8"?>
<!-- Uploaded to: SVG Repo, www.svgrepo.com, Generator: SVG Repo Mixer Tools -->
<svg width="800px" height="800px" viewBox="0 0 24 24" fill="none" xmlns="http://www.w3.org/2000/svg">
    <rect x="6.7" y="4.7" width="11" height="15" rx="1.7" stroke="#707070" stroke-width="0.7"/>
    <rect x="8.7" y="6.7" width="7" height="5" stroke="#707070" stroke-linejoin="round" stroke-width="0.7"/>
    <path d="M8.7 17.7H9.7" stroke="#707070" stroke-linecap="round" stroke-linejoin="round" stroke-width="0.7"/>
    <path d="M14.7 17.7H15.7" stroke="#707070" stroke-linecap="round" stroke-linejoin="round" stroke-width="0.7"/>
    <path d="M11.7 17.7H12.7" stroke="#707070" stroke-linecap="round" stroke-linejoin="round" stroke-width="0.7"/>
    <path d="M8.7 15.7H9.7" stroke="#707070" stroke-linecap="round" stroke-linejoin="round" stroke-width="0.7"/>
    <path d="M14.7 15.7H15.7" stroke="#707070" stroke-linecap="round" stroke-linejoin="round" stroke-width="0.7"/>
    <path d="M11.7 15.7H12.7" stroke="#707070" stroke-linecap="round" stroke-linejoin="round" stroke-width="0.7"/>
    <path d="M8.7 13.7H9.7" stroke="#707070" stroke-linecap="round" stroke-linejoin="round" stroke-width="0.7"/>
    <path d="M14.7 13.7H15.7" stroke="#707070" stroke-linecap="round" stroke-linejoin="round" stroke-width="0.7"/>
    <path d="M11.7 13.7H12.7" stroke="#707070" stroke-linecap="round" stroke-linejoin="round" stroke-width="0.7"/>
</svg>
