{
  "$schema": "https://inlang.com/schema/project-settings",
  "sourceLanguageTag": "en",
  "languageTags": ["en", "es"],
  "modules": [
    "https://cdn.jsdelivr.net/npm/@inlang/message-lint-rule-empty-pattern@latest/dist/index.js",
    "https://cdn.jsdelivr.net/npm/@inlang/message-lint-rule-missing-translation@latest/dist/index.js",
    "https://cdn.jsdelivr.net/npm/@inlang/message-lint-rule-without-source@latest/dist/index.js",
    "https://cdn.jsdelivr.net/npm/@inlang/message-lint-rule-valid-js-identifier@latest/dist/index.js",
    "https://cdn.jsdelivr.net/npm/@inlang/plugin-message-format@latest/dist/index.js",
    "https://cdn.jsdelivr.net/npm/@inlang/plugin-m-function-matcher@latest/dist/index.js"
  ],
  "plugin.inlang.messageFormat": {
    "pathPattern": "./messages/{languageTag}.json"
  }
}
